{
  "_meta": {
    "sources": [
      "loopback/common/models",
      "loopback/server/models",
      "../common/models",
      "./models"
    ],
    "mixins": [
      "loopback/common/mixins",
      "loopback/server/mixins",
      "../common/mixins",
      "./mixins"
    ]
  },
  "Contacto": {
    "dataSource": "ciscontact",
    "public": true
  },
  "Empresa": {
    "dataSource": "ciscontact",
    "public": true
  },
  "Historial": {
    "dataSource": "ciscontact",
    "public": true
  },
  "miembroComite": {
    "dataSource": "ciscontact",
    "public": true
  },
  "ACL": {
    "dataSource": "ciscontact",
    "public": true
  },
  "Role": {
    "dataSource": "ciscontact",
    "public": true
  },
  "RoleMapping": {
    "dataSource": "ciscontact",
    "public": true
  },
  "AccessToken": {
    "dataSource": "ciscontact",
    "public": true
  }
}
